%YAML 1.1
%TAG !u! tag:unity3d.com,2011:
--- !u!1045 &1
EditorBuildSettings:
  m_ObjectHideFlags: 0
  serializedVersion: 2
  m_Scenes:
  - enabled: 1
    path: Assets/Scenes/LevelSelection.unity
    guid: 237e27f2a42d3994ebb1e2ba07703372
  - enabled: 1
    path: Assets/Level1_v4.unity
    guid: 5f1f8c947b2813f4b97dc34aa5f75661
  - enabled: 1
    path: Assets/Level2_v4.unity
    guid: 64cf55b899eb10048be7a9cfeae6c96a
  - enabled: 1
    path: Assets/Level3_v4.unity
    guid: c98176d25b186a745a37d983b72383f5
  - enabled: 1
    path: Assets/Level4_v4.unity
    guid: 74e0bcadf18d8f949a711f5577dafded
  - enabled: 1
    path: Assets/Level5_v4.unity
    guid: 87cda67458847014da6b95e91d9881d2
  m_configObjects: {}
